%YAML 1.1
%TAG !u! tag:unity3d.com,2011:
--- !u!78 &1
TagManager:
  serializedVersion: 2
  tags:
  - Item
  - TestItem
  - Planet
  - PlayerPlaceHolder
  - InteractableText
  - PlayerCamera
  - ShipText
  - Ship
  - Bullet
  - EnemyBullet
  - RedItem
  - BlueItem
  - YellowItem
  - GreenItem
  - ItemAccountant
  - Time
  layers:
  - Default
  - TransparentFX
  - Ignore Raycast
  - 
  - Water
  - UI
  - 
  - 
  - Ship
  - Player
  - Planet
  - Bullet
  - 
  - 
  - 
  - 
  - 
  - 
  - 
  - 
  - 
  - 
  - 
  - 
  - 
  - 
  - 
  - 
  - 
  - 
  - 
  - 
  m_SortingLayers:
  - name: Default
    uniqueID: 0
    locked: 0
